[
  {
    "operation": "shift",
    "spec": {
      "entities": {
        "*": {
          "properties": {
            "name": "[&2].name",
            "description": "[&2].description",
            "price": "[&2].price"
          },
          "links": {
            "*": {
              "href": "[&3]._links.self.href"
            }
          }
        }
      }
    }
  }
]